id,time,age,male,dfmo,priorTumor,countBC,countSC,count
1,12,75,1,0,28,1,0,1
2,125,61,1,0,2,0,0,0
3,182,65,1,0,11,1,0,1
4,210,62,0,0,3,0,0,0
5,190,56,1,0,7,0,0,0
6,190,40,1,0,1,0,0,0
7,186,67,1,0,1,0,0,0
8,204,75,1,0,6,0,0,0
9,176,57,0,0,2,0,0,0
10,183,78,1,0,16,1,0,1
11,21,51,1,0,2,0,0,0
12,182,66,1,0,1,0,0,0
13,179,74,1,0,3,0,0,0
14,177,63,1,0,26,1,0,1
15,135,51,0,0,1,0,0,0
16,62,50,1,0,1,0,0,0
17,180,75,0,0,1,0,0,0
18,126,52,1,0,6,1,0,1
19,193,76,0,0,2,0,0,0
20,182,73,1,0,17,0,0,0
21,188,71,0,0,12,0,0,0
22,127,42,0,0,3,0,0,0
23,189,47,0,0,34,0,1,1
24,180,78,1,0,3,0,0,0
25,185,49,0,0,9,2,0,2
26,113,61,1,0,7,0,1,1
27,181,60,1,0,1,0,0,0
28,180,62,0,0,2,0,0,0
29,197,75,0,0,6,0,0,0
30,196,48,1,0,3,0,0,0
31,104,72,0,0,1,0,0,0
32,194,56,0,0,8,0,0,0
33,175,64,0,0,8,0,0,0
34,172,56,1,0,7,1,0,1
35,153,58,0,0,1,0,0,0
36,180,50,1,0,1,0,0,0
37,188,64,0,0,1,0,0,0
38,154,56,0,0,2,0,0,0
39,162,46,0,0,1,0,0,0
40,71,42,0,0,4,1,0,1
41,147,63,1,0,8,1,0,1
42,113,64,1,0,6,0,0,0
43,173,51,1,0,1,0,0,0
44,199,67,0,0,9,0,0,0
45,191,77,1,0,3,0,0,0
46,111,61,0,0,9,0,0,0
47,38,44,0,0,2,0,0,0
48,119,64,1,0,21,0,1,1
49,182,67,1,0,1,0,0,0
50,175,45,1,0,1,0,0,0
51,157,70,0,0,15,1,0,1
52,149,69,1,0,1,0,0,0
53,174,69,1,0,4,0,0,0
54,43,65,1,0,4,0,0,0
55,168,47,0,0,1,0,0,0
56,154,62,1,0,3,0,0,0
57,165,39,1,0,1,0,0,0
58,193,55,1,0,21,1,0,1
59,44,55,1,0,2,0,0,0
60,140,76,0,0,2,0,0,0
61,160,63,0,0,6,1,0,1
62,176,54,0,0,1,0,0,0
63,167,76,1,0,2,0,0,0
64,180,73,0,0,3,0,0,0
65,145,60,0,0,2,0,0,0
66,208,49,1,0,2,0,0,0
67,138,63,0,0,2,0,0,0
68,175,63,0,0,1,0,0,0
69,147,78,1,0,2,0,1,1
70,179,40,1,0,2,0,0,0
71,104,57,1,0,3,0,0,0
72,152,43,1,0,1,0,0,0
73,55,68,0,0,7,0,0,0
74,145,76,0,0,2,0,0,0
75,180,62,1,0,2,0,0,0
76,188,52,0,0,3,0,0,0
77,175,59,1,0,2,2,0,2
78,175,52,0,0,1,0,0,0
79,314,78,1,0,1,0,0,0
80,308,59,0,0,1,0,0,0
81,168,74,1,0,17,3,0,3
82,140,55,1,0,1,0,0,0
83,42,63,1,0,12,1,0,1
84,182,49,0,0,1,0,0,0
85,172,75,1,0,2,0,0,0
86,183,51,1,0,10,0,0,0
87,78,69,1,0,5,0,0,0
88,154,79,1,0,2,0,0,0
89,175,58,1,0,2,0,0,0
90,107,73,1,0,1,1,0,1
91,182,60,1,0,1,0,0,0
92,21,68,1,0,2,0,0,0
93,65,53,1,0,2,0,0,0
94,174,55,1,0,6,1,0,1
95,82,73,0,0,7,0,1,1
96,118,63,1,0,2,0,0,0
97,64,67,1,0,4,0,1,1
98,185,74,1,0,3,0,0,0
99,93,58,0,0,1,0,0,0
100,82,79,0,0,9,0,0,0
101,203,54,1,0,5,0,0,0
102,61,54,1,0,22,2,0,2
103,150,57,1,0,6,0,0,0
104,162,59,0,0,2,0,0,0
105,179,76,0,0,12,0,0,0
106,141,66,1,0,1,0,0,0
107,225,69,0,0,4,0,0,0
108,32,46,0,0,2,0,0,0
109,205,60,1,0,2,0,0,0
110,194,68,1,0,6,0,0,0
111,209,66,0,0,10,0,1,1
112,134,71,0,0,5,0,0,0
113,196,48,0,0,1,0,0,0
114,187,52,1,0,2,0,0,0
115,190,39,1,0,1,0,0,0
116,127,54,0,0,6,2,0,2
117,182,75,1,0,8,0,0,0
118,133,77,0,0,3,0,0,0
119,182,40,1,0,1,0,0,0
120,239,64,1,0,9,0,0,0
121,181,58,1,0,10,0,0,0
122,70,65,1,0,11,1,0,1
123,182,46,0,0,2,0,0,0
124,47,57,0,0,1,0,0,0
125,168,66,1,0,8,0,0,0
126,191,49,1,0,2,1,0,1
127,201,67,1,0,2,0,0,0
128,175,71,1,0,1,0,0,0
129,226,67,0,0,2,0,0,0
130,176,51,1,0,1,0,0,0
131,183,47,1,0,2,0,0,0
132,195,34,1,0,9,0,0,0
133,152,42,0,0,7,0,0,0
134,181,67,1,0,5,1,0,1
135,138,51,1,0,17,0,0,0
136,145,48,0,0,2,0,0,0
137,185,52,0,0,1,0,0,0
138,138,66,1,0,3,0,0,0
139,175,68,1,0,4,0,0,0
140,115,77,0,0,1,1,0,1
141,179,42,0,0,1,0,0,0
142,125,54,1,0,2,0,0,0
143,124,52,0,0,1,0,0,0
144,128,52,0,0,2,1,0,1
145,182,41,1,0,1,0,0,0
146,161,63,1,0,10,0,0,0
147,178,50,1,0,4,0,0,0
148,180,56,1,1,2,0,0,0
149,180,76,1,1,9,0,1,1
150,264,76,0,1,7,0,0,0
151,99,49,0,1,1,0,0,0
152,154,64,0,1,5,0,0,0
153,44,82,1,1,1,0,0,0
154,110,73,0,1,7,0,0,0
155,179,53,1,1,3,0,0,0
156,151,50,1,1,3,0,0,0
157,182,80,0,1,2,0,0,0
158,176,60,0,1,4,0,0,0
159,168,59,0,1,2,0,0,0
160,173,56,0,1,1,0,0,0
161,745,75,1,1,3,0,1,1
162,25,51,1,1,13,1,0,1
163,152,57,1,1,2,1,0,1
164,180,56,1,1,1,0,0,0
165,167,52,1,1,4,0,0,0
166,155,72,0,1,3,0,0,0
167,186,68,0,1,2,0,0,0
168,209,69,0,1,1,0,0,0
169,187,76,1,1,3,0,0,0
170,155,61,0,1,5,0,0,0
171,187,70,0,1,14,0,2,2
172,73,70,0,1,4,0,0,0
173,184,73,1,1,3,0,0,0
174,167,67,1,1,7,0,0,0
175,182,50,0,1,1,0,0,0
176,11,77,0,1,5,0,0,0
177,73,49,1,1,1,0,0,0
178,126,72,0,1,6,0,0,0
179,171,65,1,1,6,0,0,0
180,148,69,1,1,1,0,0,0
181,182,76,0,1,1,0,0,0
182,179,75,0,1,2,0,0,0
183,182,56,1,1,1,0,0,0
184,126,66,0,1,4,0,0,0
185,181,61,1,1,7,1,0,1
186,54,69,0,1,2,0,0,0
187,193,51,0,1,2,0,0,0
188,177,52,1,1,2,0,0,0
189,199,58,1,1,1,0,0,0
190,65,41,0,1,2,0,0,0
191,83,40,0,1,1,0,0,0
192,181,54,1,1,1,0,0,0
193,81,59,1,1,1,0,0,0
194,184,44,1,1,2,0,0,0
195,186,50,0,1,1,0,0,0
196,180,47,1,1,1,0,0,0
197,186,70,1,1,1,0,0,0
198,152,52,1,1,2,0,0,0
199,189,56,1,1,1,0,0,0
200,176,71,1,1,1,0,0,0
201,167,50,0,1,2,0,0,0
202,69,78,1,1,5,0,0,0
203,158,63,1,1,11,0,0,0
204,90,77,1,1,1,0,0,0
205,172,59,1,1,6,1,0,1
206,174,75,1,1,10,0,0,0
207,191,67,1,1,11,1,0,1
208,140,55,1,1,1,0,0,0
209,161,69,1,1,2,0,0,0
210,199,69,1,1,1,0,0,0
211,196,56,1,1,3,0,1,1
212,20,46,0,1,2,0,0,0
213,274,71,0,1,1,0,0,0
214,20,42,1,1,3,0,0,0
215,221,55,0,1,1,0,0,0
216,191,45,1,1,2,0,0,0
217,189,44,0,1,3,0,0,0
218,182,75,1,1,1,0,0,0
219,161,70,1,1,2,0,0,0
220,168,63,1,1,2,0,0,0
221,179,70,1,1,2,0,0,0
222,177,64,1,1,9,1,0,1
223,96,78,1,1,3,0,0,0
224,184,49,1,1,2,0,0,0
225,191,72,1,1,2,0,0,0
226,181,67,1,1,1,0,0,0
227,182,61,1,1,3,0,0,0
228,181,63,0,1,5,0,0,0
229,213,44,1,1,2,0,0,0
230,34,67,1,1,2,0,0,0
231,182,63,1,1,5,0,0,0
232,182,71,0,1,2,0,1,1
233,181,63,1,1,1,0,0,0
234,161,76,0,1,2,0,0,0
235,186,49,0,1,1,0,0,0
236,189,52,1,1,1,0,0,0
237,175,67,0,1,15,1,0,1
238,176,66,1,1,1,0,0,0
239,86,51,0,1,1,1,0,1
240,175,55,0,1,3,0,0,0
241,135,53,0,1,2,0,0,0
242,175,59,0,1,1,0,0,0
243,62,76,0,1,2,0,0,0
244,140,78,1,1,6,0,0,0
245,210,59,1,1,2,0,0,0
246,239,62,1,1,4,1,0,1
247,27,53,0,1,1,0,0,0
248,183,74,1,1,12,0,0,0
249,120,69,1,1,1,0,0,0
250,56,67,1,1,3,0,0,0
251,168,73,0,1,27,0,0,0
252,147,53,1,1,6,0,0,0
253,121,73,0,1,6,0,0,0
254,172,77,1,1,2,0,0,0
255,188,79,1,1,4,0,0,0
256,62,45,1,1,1,0,0,0
257,159,71,1,1,7,0,0,0
258,181,66,1,1,2,0,0,0
259,180,70,1,1,1,0,0,0
260,168,64,0,1,1,0,0,0
261,175,56,1,1,2,0,0,0
262,181,66,0,1,1,0,0,0
263,177,73,0,1,3,0,0,0
264,154,58,1,1,1,0,0,0
265,79,53,1,1,3,0,0,0
266,180,66,1,1,1,0,0,0
267,175,46,1,1,2,0,0,0
268,174,54,1,1,2,0,0,0
269,168,44,1,1,4,0,0,0
270,152,50,0,1,2,0,0,0
271,202,49,1,1,3,1,0,1
272,188,59,1,1,4,0,0,0
273,108,62,0,1,8,0,0,0
274,141,73,0,1,1,0,0,0
275,180,68,0,1,1,0,0,0
276,175,47,0,1,2,0,0,0
277,222,50,0,1,3,0,0,0
278,180,56,0,1,2,0,0,0
279,166,66,0,1,1,0,0,0
280,182,44,1,1,1,0,0,0
281,159,51,1,1,1,0,0,0
282,359,37,0,1,4,1,1,2
283,173,55,0,1,2,0,0,0
284,195,67,1,1,6,0,0,0
285,189,67,1,1,35,2,0,2
286,167,63,1,1,1,0,0,0
287,178,71,1,1,2,0,0,0
288,178,48,1,1,7,0,0,0
289,158,44,0,1,4,0,0,0
290,103,73,1,1,34,0,0,0
